{
  "kind": "collectionType",
  "connection": "default",
  "collectionName": "locations",
  "info": {
    "name": "location"
  },
  "options": {
    "increments": true,
    "timestamps": true
  },
  "attributes": {
    "locationid": {
      "type": "string"
    },
    "locationname": {
      "type": "string",
      "required": true
    },
    "clients": {
      "via": "locations",
      "collection": "client",
      "dominant": true
    },
    "orders": {
      "via": "location",
      "collection": "order"
    },
    "weeklymenus": {
      "via": "locations",
      "collection": "weeklymenu"
    }
  }
}
