{
  "kind": "collectionType",
  "connection": "default",
  "collectionName": "subscriptions",
  "info": {
    "name": "subscription"
  },
  "options": {
    "increments": true,
    "timestamps": true
  },
  "attributes": {
    "planname": {
      "type": "string"
    },
    "planamount": {
      "type": "integer"
    },
    "wallet": {
      "via": "subscription",
      "model": "wallet"
    }
  }
}
